:0100000000FF
:01000100FFFF
:01000200FFFE
:01000300FFFD
:01000400FFFC
:01000500FFFB
:01000600FFFA
:0100070000F8
:010008004CAB
:010009002DC9
:01000A008075
:01000B000BE9
:01000C0000F3
:01000D0000F2
:01000E0000F1
:01000F0000F0
:0100100034BB
:0100110017D7
:0100120001EC
:0100130004E8
:01001400B536
:010015003DAD
:0100160023C6
:010017007870
:0100180000E7
:010019005F87
:01001A00B134
:01001B00A242
:01001C00578C
:01001D004F93
:01001E00A23F
:01001F0028B8
:010020000FD0
:01002100508E
:010022005489
:0100230000DC
:0100240001DA
:0100250000DA
:010026008158
:010027000FC9
:010028008156
:0100290019BD
:01002A008154
:01002B008054
:01002C008152
:01002D008F43
:01002E00A928
:01002F00C010
:01003000B31C
:0100310000CE
:010032009538
:0100330000CC
:01003400D1FA
:0100350000CA
:010036004D7C
:01003700D0F8
:0100380000C7
:01003900A026
:01003A00F0D5
:01003B007054
:01003C003E85
:01003D008042
:01003E003091
:01003F0020A0
:01004000358A
:0100410000BE
:010042005F5E
:010043005963
:01004400219A
:0100450000BA
:0100460000B9
:010047001A9E
:010048002691
:01004900684E
:01004A0000B5
:01004B00A014
:01004C00F0C3
:01004D007042
:01004E003E73
:01004F008030
:01005000307F
:01005100208E
:010052003578
:0100530000AC
:010054005F4C
:010055005951
:010056002188
:0100570000A8
:0100580000A7
:010059001A8C
:01005A0000A5
:01005B0000A4
:01005C0000A3
:01005D00FDA5
:01005E0000A1
:01005F003868
:010060007827
:010061001E80
:010062008617
:010063003666
:01006400009B
:010065000A90
:010066002079
:010067002078
:010068002077
:010069002076
:01006A002075
:01006B002074
:01006C000093
:01006D000092
:01006E000091
:01006F00FC94
:01007000008F
:010071005539
:01007200325B
:010073003854
:010074004447
:010075003555
:010076003950
:010077003058
:010078000A7D
:010079002066
:01007A002065
:01007B002064
:01007C002063
:01007D002062
:01007E000081
:01007F00E39D
:01008000007F
:01008100007E
:01008200007D
:01008300007C
:01008400007B
:01008500007A
:010086000079
:010087000078
:010088000077
:010089000076
:01008A000075
:01008B000074
:01008C000073
:01008D000072
:01008E000071
:01008F000070
:01009000006F
:01009100006E
:01009200006D
:01009300006C
:01009400006B
:01009500006A
:010096000069
:010097000068
:010098000067
:010099000066
:01009A000065
:01009B000064
:01009C000063
:01009D000062
:01009E000061
:01009F000060
:0100A000005F
:0100A100005E
:0100A200005D
:0100A300005C
:0100A400005B
:0100A500005A
:0100A6000059
:0100A7000058
:0100A8000057
:0100A9000056
:0100AA000055
:0100AB000054
:0100AC000053
:0100AD000052
:0100AE000051
:0100AF000050
:0100B000004F
:0100B100004E
:0100B200004D
:0100B300004C
:0100B400004B
:0100B500004A
:0100B6000049
:0100B7000048
:0100B8000047
:0100B9000046
:0100BA000045
:0100BB000044
:0100BC000043
:0100BD000042
:0100BE000041
:0100BF000040
:0100C000003F
:0100C100003E
:0100C200003D
:0100C300003C
:0100C400003B
:0100C500003A
:0100C6000039
:0100C7000038
:0100C8000037
:0100C9000036
:0100CA000035
:0100CB000034
:0100CC000033
:0100CD000032
:0100CE000031
:0100CF000030
:0100D000002F
:0100D100002E
:0100D200002D
:0100D300002C
:0100D400002B
:0100D500002A
:0100D6000029
:0100D7000028
:0100D8000027
:0100D9000026
:0100DA000025
:0100DB000024
:0100DC000023
:0100DD000022
:0100DE000021
:0100DF000020
:0100E000001F
:0100E100001E
:0100E200001D
:0100E300001C
:0100E400001B
:0100E500001A
:0100E6000019
:0100E7000018
:0100E8000017
:0100E9000016
:0100EA000015
:0100EB000014
:0100EC000013
:0100ED000012
:0100EE000011
:0100EF000010
:0100F000000F
:0100F100000E
:0100F200000D
:0100F300000C
:0100F400000B
:0100F500000A
:0100F6000009
:0100F7000008
:0100F8000007
:0100F9000006
:0100FA000005
:0100FB000004
:0100FC000003
:0100FD000002
:0100FE000001
:0100FF000000
:00000001FF
